sv xil_defaultlib  \
"/tools/Xilinx/Vivado/2018.3/data/ip/xpm/xpm_memory/hdl/xpm_memory.sv" \

verilog blk_mem_gen_v8_4_2  \
"../../../ipstatic/simulation/blk_mem_gen_v8_4.v" \

verilog xil_defaultlib  \
"../../../ip/line_buffer_mem_20/sim/line_buffer_mem_20.v" \

verilog xil_defaultlib "glbl.v"

nosort
